{
  "/users/ManoelLobo": {
    "login": "ManoelLobo",
    "id": 8916632,
    "avatar_url": "https://avatars0.githubusercontent.com/u/8916632?v=4",
    "gravatar_id": "",
    "url": "https://api.github.com/users/ManoelLobo",
    "html_url": "https://github.com/ManoelLobo",
    "followers_url": "https://api.github.com/users/ManoelLobo/followers",
    "following_url": "https://api.github.com/users/ManoelLobo/following{/other_user}",
    "gists_url": "https://api.github.com/users/ManoelLobo/gists{/gist_id}",
    "starred_url": "https://api.github.com/users/ManoelLobo/starred{/owner}{/repo}",
    "subscriptions_url": "https://api.github.com/users/ManoelLobo/subscriptions",
    "organizations_url": "https://api.github.com/users/ManoelLobo/orgs",
    "repos_url": "https://api.github.com/users/ManoelLobo/repos",
    "events_url": "https://api.github.com/users/ManoelLobo/events{/privacy}",
    "received_events_url": "https://api.github.com/users/ManoelLobo/received_events",
    "type": "User",
    "site_admin": false,
    "name": "Manoel",
    "company": null,
    "blog": "",
    "location": null,
    "email": null,
    "hireable": null,
    "bio": null,
    "public_repos": 8,
    "public_gists": 0,
    "followers": 0,
    "following": 0,
    "created_at": "2014-09-25T14:50:21Z",
    "updated_at": "2018-03-02T18:37:34Z"
  }
}